^C:\USERS\ADMINISTRATOR\DOCUMENTS\HT0601\NEWPROJECT\소스.CPP
C:\USERS\ADMINISTRATOR\DOCUMENTS\HT0601\NEWPROJECT\X64\DEBUG\VC142.PDB
C:\USERS\ADMINISTRATOR\DOCUMENTS\HT0601\NEWPROJECT\X64\DEBUG\VC142.IDB
C:\USERS\ADMINISTRATOR\DOCUMENTS\HT0601\NEWPROJECT\X64\DEBUG\소스.OBJ
